^C:\USERS\LUKAR\DOCUMENTS\SCHULE\MGIN\MGIN-LAB7\UNITTEST1\PCH.CPP
C:\WINDOWS\GLOBALIZATION\SORTING\SORTDEFAULT.NLS
C:\PROGRAM FILES (X86)\MICROSOFT VISUAL STUDIO\2019\ENTERPRISE\VC\TOOLS\MSVC\14.29.30037\BIN\HOSTX86\X64\1031\CLUI.DLL
C:\WINDOWS\SYSTEM32\TZRES.DLL
C:\USERS\LUKAR\DOCUMENTS\SCHULE\MGIN\MGIN-LAB7\UNITTEST1\PCH.H
